#define ct_width 12
#define ct_height 10
static unsigned char ct_bits[] = {
   0x00, 0x00, 0x20, 0x00, 0x60, 0x00, 0xa0, 0x00, 0x30, 0x01, 0x28, 0x01,
   0xa4, 0x00, 0x7c, 0x00, 0x20, 0x00, 0xfc, 0x01};
