#define mb_width 12
#define mb_height 10
static unsigned char mb_bits[] = {
   0x80, 0x00, 0x90, 0x01, 0xb0, 0x02, 0xd0, 0x04, 0x98, 0x04, 0x94, 0x04,
   0xd2, 0x02, 0xbe, 0x01, 0x90, 0x00, 0xfe, 0x07};
